-0.00731,0.075277,0,
-0.00731,0.024723,0,
-0.06242,0.024723,0,
-0.06242,-0.025277,0,
-0.00731,-0.025277,0,
-0.00731,-0.075277,0,
0.034865,-0.075277,0,
0.034865,0.024723,0,
0.06242,0.024723,0,
0.06242,0.075277,0,
-0.00731,0.075277,0,