0.000131,0.073775,0,
-0.013085,0.05816,0,
0.011794,0.044846,0,
0.005217,0.032802,0,
0.015576,0.029336,0,
0.024249,0.022697,0,
0.030301,0.013604,0,
0.033075,0.003039,0,
0.032272,-0.007854,0,
0.02798,-0.017898,0,
0.020661,-0.026006,0,
0.011108,-0.031302,0,
0.000354,-0.033212,0,
-0.010439,-0.031531,0,
-0.020103,-0.02644,0,
-0.027592,-0.018489,0,
-0.032098,-0.008539,0,
-0.033132,0.002335,0,
-0.030583,0.012956,0,
-0.024727,0.022176,0,
-0.016196,0.028998,0,
-0.005914,0.032683,0,
0.005007,0.032835,0,
0.011522,0.044765,0,
-0.013398,0.0581,0,
-0.000131,0.073775,0,
-0.013052,0.076915,0,
-0.024107,0.084427,0,
-0.033376,0.094096,0,
-0.041363,0.104858,0,
-0.048437,0.116245,0,
-0.076452,0.10007,0,
-0.070116,0.088227,0,
-0.064783,0.075903,0,
-0.061047,0.063014,0,
-0.060093,0.049656,0,
-0.063891,0.036887,0,
-0.07305,0.027214,0,
-0.085095,0.021361,0,
-0.098126,0.018152,0,
-0.111465,0.016609,0,
-0.124889,0.016175,0,
-0.124889,-0.016175,0,
-0.111465,-0.016609,0,
-0.098126,-0.018152,0,
-0.085095,-0.021361,0,
-0.07305,-0.027214,0,
-0.063891,-0.036887,0,
-0.060093,-0.049656,0,
-0.061047,-0.063014,0,
-0.064783,-0.075903,0,
-0.070116,-0.088227,0,
-0.076452,-0.10007,0,
-0.048437,-0.116245,0,
-0.041349,-0.104836,0,
-0.033343,-0.094055,0,
-0.024048,-0.084375,0,
-0.012957,-0.07687,0,
0,-0.073775,0,
0.012957,-0.07687,0,
0.024048,-0.084375,0,
0.033343,-0.094055,0,
0.041349,-0.104836,0,
0.048437,-0.116245,0,
0.076452,-0.10007,0,
0.070116,-0.088227,0,
0.064783,-0.075903,0,
0.061047,-0.063014,0,
0.060093,-0.049656,0,
0.063891,-0.036887,0,
0.07305,-0.027214,0,
0.085095,-0.021361,0,
0.098126,-0.018152,0,
0.111465,-0.016609,0,
0.124889,-0.016175,0,
0.124889,0.016175,0,
0.111465,0.016609,0,
0.098126,0.018152,0,
0.085095,0.021361,0,
0.07305,0.027214,0,
0.063891,0.036887,0,
0.060093,0.049656,0,
0.061047,0.063014,0,
0.064783,0.075903,0,
0.070116,0.088227,0,
0.076452,0.10007,0,
0.048437,0.116245,0,
0.041363,0.104858,0,
0.033376,0.094096,0,
0.024108,0.084427,0,
0.013052,0.076915,0,
0.000131,0.073775,0,